{
	"code": 0,
	"message": null,
	"prevPage": false,
	"page": 0,
	"nextPage": true,
	"perPage": 10,
	"totalResults": 953268,
	"totalPages": 95327,
	"failureRateRecords": [{
		"id": 953308,
		"market": "SALI",
		"zone": "OCN",
		"network": "DISC-HD",
		"total": {
			"count": 348,
			"percentage": 100.0,
			"alerting": false,
			"suppressed": false
		},
		"success": {
			"count": 213,
			"percentage": 61.0,
			"alerting": false,
			"suppressed": false
		},
		"failure": {
			"count": 118,
			"percentage": 0.0,
			"alerting": false,
			"suppressed": false
		},
		"no_psn": {
			"count": 118,
			"percentage": 34.0,
			"alerting": true,
			"suppressed": false
		},
		"no_start_psn": {
			"count": 0,
			"percentage": 0.0,
			"alerting": false,
			"suppressed": false
		},
		"no_end_psn": {
			"count": 0,
			"percentage": 0.0,
			"alerting": false,
			"suppressed": false
		},
		"null_asset": {
			"count": 0,
			"percentage": 0.0,
			"alerting": false,
			"suppressed": false
		},
		"mismatch_asset": {
			"count": 0,
			"percentage": 0.0,
			"alerting": false,
			"suppressed": false
		},
		"playtime_error": {
			"count": 0,
			"percentage": 0.0,
			"alerting": false,
			"suppressed": false
		},
		"other_error": {
			"count": 0,
			"percentage": 0.0,
			"alerting": false,
			"suppressed": false
		},
		"after_end_all": {
			"count": 17,
			"percentage": 5.0,
			"alerting": false,
			"suppressed": false
		},
		"psn_errors": {
			"code_11": {
				"count": 0,
				"percentage": 0.0,
				"alerting": false,
				"suppressed": false
			},
			"code_3011": {
				"count": 0,
				"percentage": 0.0,
				"alerting": false,
				"suppressed": false
			},
			"code_17": {
				"count": 0,
				"percentage": 0.0,
				"alerting": false,
				"suppressed": false
			},
			"code_14": {
				"count": 0,
				"percentage": 0.0,
				"alerting": false,
				"suppressed": false
			},
			"code_2": {
				"count": 0,
				"percentage": 0.0,
				"alerting": false,
				"suppressed": false
			}
		},
		"status": "ACTIVE",
		"actual_status": "ACTIVE",
		"last_updated_timestamp": 1542522804130,
		"last_updated_timestamp_utc": "2018-11-18 06:33:24",
		"close_timestamp": null,
		"close_timestamp_utc": null,
		"suppress_timestamp": null,
		"suppress_timestamp_utc": null,
		"alert_timestamp": 1542522804130,
		"alert_timestamp_utc": "2018-11-18 06:33:24",
		"suppressed_by": null,
		"jira": null
	}, {
		"id": 953309,
		"market": "SBEN",
		"zone": "EKH",
		"network": "FXNC-HD",
		"total": {
			"count": 3,
			"percentage": 100.0,
			"alerting": false,
			"suppressed": false
		},
		"success": {
			"count": 0,
			"percentage": 0.0,
			"alerting": false,
			"suppressed": false
		},
		"failure": {
			"count": 3,
			"percentage": 0.0,
			"alerting": false,
			"suppressed": false
		},
		"no_psn": {
			"count": 3,
			"percentage": 100.0,
			"alerting": true,
			"suppressed": false
		},
		"no_start_psn": {
			"count": 0,
			"percentage": 0.0,
			"alerting": false,
			"suppressed": false
		},
		"no_end_psn": {
			"count": 0,
			"percentage": 0.0,
			"alerting": false,
			"suppressed": false
		},
		"null_asset": {
			"count": 0,
			"percentage": 0.0,
			"alerting": false,
			"suppressed": false
		},
		"mismatch_asset": {
			"count": 0,
			"percentage": 0.0,
			"alerting": false,
			"suppressed": false
		},
		"playtime_error": {
			"count": 0,
			"percentage": 0.0,
			"alerting": false,
			"suppressed": false
		},
		"other_error": {
			"count": 0,
			"percentage": 0.0,
			"alerting": false,
			"suppressed": false
		},
		"after_end_all": {
			"count": 0,
			"percentage": 0.0,
			"alerting": false,
			"suppressed": false
		},
		"psn_errors": {
			"code_11": {
				"count": 0,
				"percentage": 0.0,
				"alerting": false,
				"suppressed": false
			},
			"code_3011": {
				"count": 0,
				"percentage": 0.0,
				"alerting": false,
				"suppressed": false
			},
			"code_17": {
				"count": 0,
				"percentage": 0.0,
				"alerting": false,
				"suppressed": false
			},
			"code_14": {
				"count": 0,
				"percentage": 0.0,
				"alerting": false,
				"suppressed": false
			},
			"code_2": {
				"count": 0,
				"percentage": 0.0,
				"alerting": false,
				"suppressed": false
			}
		},
		"status": "ACTIVE",
		"actual_status": "ACTIVE",
		"last_updated_timestamp": 1542522804130,
		"last_updated_timestamp_utc": "2018-11-18 06:33:24",
		"close_timestamp": null,
		"close_timestamp_utc": null,
		"suppress_timestamp": null,
		"suppress_timestamp_utc": null,
		"alert_timestamp": 1542522804130,
		"alert_timestamp_utc": "2018-11-18 06:33:24",
		"suppressed_by": null,
		"jira": null
	}, {
		"id": 953305,
		"market": "HOUS",
		"zone": "PASA",
		"network": "HIST-HD",
		"total": {
			"count": 860,
			"percentage": 100.0,
			"alerting": false,
			"suppressed": false
		},
		"success": {
			"count": 554,
			"percentage": 64.0,
			"alerting": false,
			"suppressed": false
		},
		"failure": {
			"count": 270,
			"percentage": 0.0,
			"alerting": false,
			"suppressed": false
		},
		"no_psn": {
			"count": 264,
			"percentage": 31.0,
			"alerting": true,
			"suppressed": false
		},
		"no_start_psn": {
			"count": 0,
			"percentage": 0.0,
			"alerting": false,
			"suppressed": false
		},
		"no_end_psn": {
			"count": 6,
			"percentage": 1.0,
			"alerting": false,
			"suppressed": false
		},
		"null_asset": {
			"count": 0,
			"percentage": 0.0,
			"alerting": false,
			"suppressed": false
		},
		"mismatch_asset": {
			"count": 0,
			"percentage": 0.0,
			"alerting": false,
			"suppressed": false
		},
		"playtime_error": {
			"count": 0,
			"percentage": 0.0,
			"alerting": false,
			"suppressed": false
		},
		"other_error": {
			"count": 0,
			"percentage": 0.0,
			"alerting": false,
			"suppressed": false
		},
		"after_end_all": {
			"count": 36,
			"percentage": 4.0,
			"alerting": false,
			"suppressed": false
		},
		"psn_errors": {
			"code_11": {
				"count": 0,
				"percentage": 0.0,
				"alerting": false,
				"suppressed": false
			},
			"code_3011": {
				"count": 0,
				"percentage": 0.0,
				"alerting": false,
				"suppressed": false
			},
			"code_17": {
				"count": 0,
				"percentage": 0.0,
				"alerting": false,
				"suppressed": false
			},
			"code_14": {
				"count": 0,
				"percentage": 0.0,
				"alerting": false,
				"suppressed": false
			},
			"code_2": {
				"count": 0,
				"percentage": 0.0,
				"alerting": false,
				"suppressed": false
			}
		},
		"status": "HISTORICAL",
		"actual_status": "HISTORICAL",
		"last_updated_timestamp": 1542522804139,
		"last_updated_timestamp_utc": "2018-11-18 06:33:24",
		"close_timestamp": 1542522804139,
		"close_timestamp_utc": "2018-11-18 06:33:24",
		"suppress_timestamp": null,
		"suppress_timestamp_utc": null,
		"alert_timestamp": 1542519181541,
		"alert_timestamp_utc": "2018-11-18 05:33:01",
		"suppressed_by": null,
		"jira": null
	}, {
		"id": 953306,
		"market": "HATT",
		"zone": "HALA",
		"network": "CMDY-HD",
		"total": {
			"count": 376,
			"percentage": 100.0,
			"alerting": false,
			"suppressed": false
		},
		"success": {
			"count": 175,
			"percentage": 46.0,
			"alerting": false,
			"suppressed": false
		},
		"failure": {
			"count": 200,
			"percentage": 0.0,
			"alerting": false,
			"suppressed": false
		},
		"no_psn": {
			"count": 200,
			"percentage": 53.0,
			"alerting": true,
			"suppressed": false
		},
		"no_start_psn": {
			"count": 0,
			"percentage": 0.0,
			"alerting": false,
			"suppressed": false
		},
		"no_end_psn": {
			"count": 0,
			"percentage": 0.0,
			"alerting": false,
			"suppressed": false
		},
		"null_asset": {
			"count": 0,
			"percentage": 0.0,
			"alerting": false,
			"suppressed": false
		},
		"mismatch_asset": {
			"count": 0,
			"percentage": 0.0,
			"alerting": false,
			"suppressed": false
		},
		"playtime_error": {
			"count": 0,
			"percentage": 0.0,
			"alerting": false,
			"suppressed": false
		},
		"other_error": {
			"count": 0,
			"percentage": 0.0,
			"alerting": false,
			"suppressed": false
		},
		"after_end_all": {
			"count": 1,
			"percentage": 0.0,
			"alerting": false,
			"suppressed": false
		},
		"psn_errors": {
			"code_11": {
				"count": 0,
				"percentage": 0.0,
				"alerting": false,
				"suppressed": false
			},
			"code_3011": {
				"count": 0,
				"percentage": 0.0,
				"alerting": false,
				"suppressed": false
			},
			"code_17": {
				"count": 0,
				"percentage": 0.0,
				"alerting": false,
				"suppressed": false
			},
			"code_14": {
				"count": 0,
				"percentage": 0.0,
				"alerting": false,
				"suppressed": false
			},
			"code_2": {
				"count": 0,
				"percentage": 0.0,
				"alerting": false,
				"suppressed": false
			}
		},
		"status": "HISTORICAL",
		"actual_status": "HISTORICAL",
		"last_updated_timestamp": 1542522804139,
		"last_updated_timestamp_utc": "2018-11-18 06:33:24",
		"close_timestamp": 1542522804139,
		"close_timestamp_utc": "2018-11-18 06:33:24",
		"suppress_timestamp": null,
		"suppress_timestamp_utc": null,
		"alert_timestamp": 1542519181541,
		"alert_timestamp_utc": "2018-11-18 05:33:01",
		"suppressed_by": null,
		"jira": null
	}, {
		"id": 953307,
		"market": "INDY",
		"zone": "BLM",
		"network": "LIF-HD",
		"total": {
			"count": 72,
			"percentage": 100.0,
			"alerting": false,
			"suppressed": false
		},
		"success": {
			"count": 38,
			"percentage": 52.0,
			"alerting": false,
			"suppressed": false
		},
		"failure": {
			"count": 34,
			"percentage": 0.0,
			"alerting": false,
			"suppressed": false
		},
		"no_psn": {
			"count": 34,
			"percentage": 47.0,
			"alerting": true,
			"suppressed": false
		},
		"no_start_psn": {
			"count": 0,
			"percentage": 0.0,
			"alerting": false,
			"suppressed": false
		},
		"no_end_psn": {
			"count": 0,
			"percentage": 0.0,
			"alerting": false,
			"suppressed": false
		},
		"null_asset": {
			"count": 0,
			"percentage": 0.0,
			"alerting": false,
			"suppressed": false
		},
		"mismatch_asset": {
			"count": 0,
			"percentage": 0.0,
			"alerting": false,
			"suppressed": false
		},
		"playtime_error": {
			"count": 0,
			"percentage": 0.0,
			"alerting": false,
			"suppressed": false
		},
		"other_error": {
			"count": 0,
			"percentage": 0.0,
			"alerting": false,
			"suppressed": false
		},
		"after_end_all": {
			"count": 0,
			"percentage": 0.0,
			"alerting": false,
			"suppressed": false
		},
		"psn_errors": {
			"code_11": {
				"count": 0,
				"percentage": 0.0,
				"alerting": false,
				"suppressed": false
			},
			"code_3011": {
				"count": 0,
				"percentage": 0.0,
				"alerting": false,
				"suppressed": false
			},
			"code_17": {
				"count": 0,
				"percentage": 0.0,
				"alerting": false,
				"suppressed": false
			},
			"code_14": {
				"count": 0,
				"percentage": 0.0,
				"alerting": false,
				"suppressed": false
			},
			"code_2": {
				"count": 0,
				"percentage": 0.0,
				"alerting": false,
				"suppressed": false
			}
		},
		"status": "HISTORICAL",
		"actual_status": "HISTORICAL",
		"last_updated_timestamp": 1542522804139,
		"last_updated_timestamp_utc": "2018-11-18 06:33:24",
		"close_timestamp": 1542522804139,
		"close_timestamp_utc": "2018-11-18 06:33:24",
		"suppress_timestamp": null,
		"suppress_timestamp_utc": null,
		"alert_timestamp": 1542519181541,
		"alert_timestamp_utc": "2018-11-18 05:33:01",
		"suppressed_by": null,
		"jira": null
	}, {
		"id": 953303,
		"market": "MERI",
		"zone": "MER",
		"network": "BET-HD",
		"total": {
			"count": 9,
			"percentage": 100.0,
			"alerting": false,
			"suppressed": false
		},
		"success": {
			"count": 6,
			"percentage": 66.0,
			"alerting": false,
			"suppressed": false
		},
		"failure": {
			"count": 3,
			"percentage": 0.0,
			"alerting": false,
			"suppressed": false
		},
		"no_psn": {
			"count": 3,
			"percentage": 33.0,
			"alerting": true,
			"suppressed": false
		},
		"no_start_psn": {
			"count": 0,
			"percentage": 0.0,
			"alerting": false,
			"suppressed": false
		},
		"no_end_psn": {
			"count": 0,
			"percentage": 0.0,
			"alerting": false,
			"suppressed": false
		},
		"null_asset": {
			"count": 0,
			"percentage": 0.0,
			"alerting": false,
			"suppressed": false
		},
		"mismatch_asset": {
			"count": 0,
			"percentage": 0.0,
			"alerting": false,
			"suppressed": false
		},
		"playtime_error": {
			"count": 0,
			"percentage": 0.0,
			"alerting": false,
			"suppressed": false
		},
		"other_error": {
			"count": 0,
			"percentage": 0.0,
			"alerting": false,
			"suppressed": false
		},
		"after_end_all": {
			"count": 0,
			"percentage": 0.0,
			"alerting": false,
			"suppressed": false
		},
		"psn_errors": {
			"code_11": {
				"count": 0,
				"percentage": 0.0,
				"alerting": false,
				"suppressed": false
			},
			"code_3011": {
				"count": 0,
				"percentage": 0.0,
				"alerting": false,
				"suppressed": false
			},
			"code_17": {
				"count": 0,
				"percentage": 0.0,
				"alerting": false,
				"suppressed": false
			},
			"code_14": {
				"count": 0,
				"percentage": 0.0,
				"alerting": false,
				"suppressed": false
			},
			"code_2": {
				"count": 0,
				"percentage": 0.0,
				"alerting": false,
				"suppressed": false
			}
		},
		"status": "HISTORICAL",
		"actual_status": "HISTORICAL",
		"last_updated_timestamp": 1542519181553,
		"last_updated_timestamp_utc": "2018-11-18 05:33:01",
		"close_timestamp": 1542519181553,
		"close_timestamp_utc": "2018-11-18 05:33:01",
		"suppress_timestamp": null,
		"suppress_timestamp_utc": null,
		"alert_timestamp": 1542511937772,
		"alert_timestamp_utc": "2018-11-18 03:32:17",
		"suppressed_by": null,
		"jira": null
	}, {
		"id": 953304,
		"market": "FTWA",
		"zone": "HCY",
		"network": "GOLF-HD",
		"total": {
			"count": 14,
			"percentage": 100.0,
			"alerting": false,
			"suppressed": false
		},
		"success": {
			"count": 8,
			"percentage": 57.0,
			"alerting": false,
			"suppressed": false
		},
		"failure": {
			"count": 6,
			"percentage": 0.0,
			"alerting": false,
			"suppressed": false
		},
		"no_psn": {
			"count": 6,
			"percentage": 43.0,
			"alerting": true,
			"suppressed": false
		},
		"no_start_psn": {
			"count": 0,
			"percentage": 0.0,
			"alerting": false,
			"suppressed": false
		},
		"no_end_psn": {
			"count": 0,
			"percentage": 0.0,
			"alerting": false,
			"suppressed": false
		},
		"null_asset": {
			"count": 0,
			"percentage": 0.0,
			"alerting": false,
			"suppressed": false
		},
		"mismatch_asset": {
			"count": 0,
			"percentage": 0.0,
			"alerting": false,
			"suppressed": false
		},
		"playtime_error": {
			"count": 0,
			"percentage": 0.0,
			"alerting": false,
			"suppressed": false
		},
		"other_error": {
			"count": 0,
			"percentage": 0.0,
			"alerting": false,
			"suppressed": false
		},
		"after_end_all": {
			"count": 0,
			"percentage": 0.0,
			"alerting": false,
			"suppressed": false
		},
		"psn_errors": {
			"code_11": {
				"count": 0,
				"percentage": 0.0,
				"alerting": false,
				"suppressed": false
			},
			"code_3011": {
				"count": 0,
				"percentage": 0.0,
				"alerting": false,
				"suppressed": false
			},
			"code_17": {
				"count": 0,
				"percentage": 0.0,
				"alerting": false,
				"suppressed": false
			},
			"code_14": {
				"count": 0,
				"percentage": 0.0,
				"alerting": false,
				"suppressed": false
			},
			"code_2": {
				"count": 0,
				"percentage": 0.0,
				"alerting": false,
				"suppressed": false
			}
		},
		"status": "HISTORICAL",
		"actual_status": "HISTORICAL",
		"last_updated_timestamp": 1542519181553,
		"last_updated_timestamp_utc": "2018-11-18 05:33:01",
		"close_timestamp": 1542519181553,
		"close_timestamp_utc": "2018-11-18 05:33:01",
		"suppress_timestamp": null,
		"suppress_timestamp_utc": null,
		"alert_timestamp": 1542511937772,
		"alert_timestamp_utc": "2018-11-18 03:32:17",
		"suppressed_by": null,
		"jira": null
	}, {
		"id": 953300,
		"market": "CHIC",
		"zone": "KAK",
		"network": "ENT-HD",
		"total": {
			"count": 431,
			"percentage": 100.0,
			"alerting": false,
			"suppressed": false
		},
		"success": {
			"count": 251,
			"percentage": 58.0,
			"alerting": false,
			"suppressed": false
		},
		"failure": {
			"count": 156,
			"percentage": 0.0,
			"alerting": false,
			"suppressed": false
		},
		"no_psn": {
			"count": 156,
			"percentage": 36.0,
			"alerting": true,
			"suppressed": false
		},
		"no_start_psn": {
			"count": 0,
			"percentage": 0.0,
			"alerting": false,
			"suppressed": false
		},
		"no_end_psn": {
			"count": 0,
			"percentage": 0.0,
			"alerting": false,
			"suppressed": false
		},
		"null_asset": {
			"count": 0,
			"percentage": 0.0,
			"alerting": false,
			"suppressed": false
		},
		"mismatch_asset": {
			"count": 0,
			"percentage": 0.0,
			"alerting": false,
			"suppressed": false
		},
		"playtime_error": {
			"count": 0,
			"percentage": 0.0,
			"alerting": false,
			"suppressed": false
		},
		"other_error": {
			"count": 0,
			"percentage": 0.0,
			"alerting": false,
			"suppressed": false
		},
		"after_end_all": {
			"count": 24,
			"percentage": 6.0,
			"alerting": false,
			"suppressed": false
		},
		"psn_errors": {
			"code_11": {
				"count": 0,
				"percentage": 0.0,
				"alerting": false,
				"suppressed": false
			},
			"code_3011": {
				"count": 0,
				"percentage": 0.0,
				"alerting": false,
				"suppressed": false
			},
			"code_17": {
				"count": 0,
				"percentage": 0.0,
				"alerting": false,
				"suppressed": false
			},
			"code_14": {
				"count": 0,
				"percentage": 0.0,
				"alerting": false,
				"suppressed": false
			},
			"code_2": {
				"count": 0,
				"percentage": 0.0,
				"alerting": false,
				"suppressed": false
			}
		},
		"status": "HISTORICAL",
		"actual_status": "HISTORICAL",
		"last_updated_timestamp": 1542515560080,
		"last_updated_timestamp_utc": "2018-11-18 04:32:40",
		"close_timestamp": 1542515560080,
		"close_timestamp_utc": "2018-11-18 04:32:40",
		"suppress_timestamp": null,
		"suppress_timestamp_utc": null,
		"alert_timestamp": 1542508314041,
		"alert_timestamp_utc": "2018-11-18 02:31:54",
		"suppressed_by": null,
		"jira": null
	}, {
		"id": 953301,
		"market": "INDY",
		"zone": "GRB",
		"network": "CNN-HD",
		"total": {
			"count": 4,
			"percentage": 100.0,
			"alerting": false,
			"suppressed": false
		},
		"success": {
			"count": 2,
			"percentage": 50.0,
			"alerting": false,
			"suppressed": false
		},
		"failure": {
			"count": 2,
			"percentage": 0.0,
			"alerting": false,
			"suppressed": false
		},
		"no_psn": {
			"count": 0,
			"percentage": 0.0,
			"alerting": false,
			"suppressed": false
		},
		"no_start_psn": {
			"count": 0,
			"percentage": 0.0,
			"alerting": false,
			"suppressed": false
		},
		"no_end_psn": {
			"count": 2,
			"percentage": 50.0,
			"alerting": true,
			"suppressed": false
		},
		"null_asset": {
			"count": 0,
			"percentage": 0.0,
			"alerting": false,
			"suppressed": false
		},
		"mismatch_asset": {
			"count": 0,
			"percentage": 0.0,
			"alerting": false,
			"suppressed": false
		},
		"playtime_error": {
			"count": 0,
			"percentage": 0.0,
			"alerting": false,
			"suppressed": false
		},
		"other_error": {
			"count": 0,
			"percentage": 0.0,
			"alerting": false,
			"suppressed": false
		},
		"after_end_all": {
			"count": 0,
			"percentage": 0.0,
			"alerting": false,
			"suppressed": false
		},
		"psn_errors": {
			"code_11": {
				"count": 0,
				"percentage": 0.0,
				"alerting": false,
				"suppressed": false
			},
			"code_3011": {
				"count": 0,
				"percentage": 0.0,
				"alerting": false,
				"suppressed": false
			},
			"code_17": {
				"count": 0,
				"percentage": 0.0,
				"alerting": false,
				"suppressed": false
			},
			"code_14": {
				"count": 0,
				"percentage": 0.0,
				"alerting": false,
				"suppressed": false
			},
			"code_2": {
				"count": 0,
				"percentage": 0.0,
				"alerting": false,
				"suppressed": false
			}
		},
		"status": "HISTORICAL",
		"actual_status": "HISTORICAL",
		"last_updated_timestamp": 1542511937784,
		"last_updated_timestamp_utc": "2018-11-18 03:32:17",
		"close_timestamp": 1542511937784,
		"close_timestamp_utc": "2018-11-18 03:32:17",
		"suppress_timestamp": null,
		"suppress_timestamp_utc": null,
		"alert_timestamp": 1542508314041,
		"alert_timestamp_utc": "2018-11-18 02:31:54",
		"suppressed_by": null,
		"jira": null
	}, {
		"id": 953302,
		"market": "SBEN",
		"zone": "NLS",
		"network": "FOOD-HD",
		"total": {
			"count": 3,
			"percentage": 100.0,
			"alerting": false,
			"suppressed": false
		},
		"success": {
			"count": 0,
			"percentage": 0.0,
			"alerting": false,
			"suppressed": false
		},
		"failure": {
			"count": 3,
			"percentage": 0.0,
			"alerting": false,
			"suppressed": false
		},
		"no_psn": {
			"count": 3,
			"percentage": 100.0,
			"alerting": true,
			"suppressed": false
		},
		"no_start_psn": {
			"count": 0,
			"percentage": 0.0,
			"alerting": false,
			"suppressed": false
		},
		"no_end_psn": {
			"count": 0,
			"percentage": 0.0,
			"alerting": false,
			"suppressed": false
		},
		"null_asset": {
			"count": 0,
			"percentage": 0.0,
			"alerting": false,
			"suppressed": false
		},
		"mismatch_asset": {
			"count": 0,
			"percentage": 0.0,
			"alerting": false,
			"suppressed": false
		},
		"playtime_error": {
			"count": 0,
			"percentage": 0.0,
			"alerting": false,
			"suppressed": false
		},
		"other_error": {
			"count": 0,
			"percentage": 0.0,
			"alerting": false,
			"suppressed": false
		},
		"after_end_all": {
			"count": 0,
			"percentage": 0.0,
			"alerting": false,
			"suppressed": false
		},
		"psn_errors": {
			"code_11": {
				"count": 0,
				"percentage": 0.0,
				"alerting": false,
				"suppressed": false
			},
			"code_3011": {
				"count": 0,
				"percentage": 0.0,
				"alerting": false,
				"suppressed": false
			},
			"code_17": {
				"count": 0,
				"percentage": 0.0,
				"alerting": false,
				"suppressed": false
			},
			"code_14": {
				"count": 0,
				"percentage": 0.0,
				"alerting": false,
				"suppressed": false
			},
			"code_2": {
				"count": 0,
				"percentage": 0.0,
				"alerting": false,
				"suppressed": false
			}
		},
		"status": "HISTORICAL",
		"actual_status": "HISTORICAL",
		"last_updated_timestamp": 1542511937784,
		"last_updated_timestamp_utc": "2018-11-18 03:32:17",
		"close_timestamp": 1542511937784,
		"close_timestamp_utc": "2018-11-18 03:32:17",
		"suppress_timestamp": null,
		"suppress_timestamp_utc": null,
		"alert_timestamp": 1542508314041,
		"alert_timestamp_utc": "2018-11-18 02:31:54",
		"suppressed_by": null,
		"jira": null
	}]
}