{
  "code": 0,
  "message": null,
  "prevPage": false,
  "page": 0,
  "nextPage": true,
  "perPage": 10,
  "totalResults": 157849,
  "totalPages": 15785,
  "wiqEventAlertSummaries": [
    {
      "event_summary_id": 512618,
      "issue_description": "GOLF-HD in 0441 had consecutive unbound breaks - Breaks[062a40c9-e280-4dde-9377-6e19554baf52 3fadd914-bf5e-44b0-a44e-c14ad7148387 5dc4738a-5b11-475f-b3e9-3bb2c2d498e1 ]",
      "jira_id": null,
      "event_category": "UNBOUND BREAKS",
      "ack_flag": false,
      "market": "Indianapolis",
      "zone_name_syscode": "Northeast INDY (0441)",
      "zone_name": "Northeast INDY",
      "syscode": "0441",
      "network": "GOLF-HD",
      "status": "ACTIVE",
      "actual_status": "ACTIVE",
      "suppress_timestamp": null,
      "ack_timestamp": null,
      "create_timestamp": 1542524761320,
      "close_timestamp": null,
      "suppress_timestamp_utc": null,
      "ack_timestamp_utc": null,
      "create_timestamp_utc": "2018-11-18 07:06:01",
      "close_timestamp_utc": null,
      "event_identifier": null,
      "notes": null
    },
    {
      "event_summary_id": 512617,
      "issue_description": "GOLF-HD in 6614 had consecutive unbound breaks - Breaks[5365010d-9f4c-4e05-8a10-db490df615d9 ba6833fe-bf71-4770-99ea-83bb2d57ef6d acd2bffd-8ad4-4db8-a63c-94383bba42a6 bec88aa1-71ff-4819-bb7a-269c808887a7 ]",
      "jira_id": null,
      "event_category": "UNBOUND BREAKS",
      "ack_flag": false,
      "market": "Indianapolis",
      "zone_name_syscode": "Connersville (6614)",
      "zone_name": "Connersville",
      "syscode": "6614",
      "network": "GOLF-HD",
      "status": "ACTIVE",
      "actual_status": "ACTIVE",
      "suppress_timestamp": null,
      "ack_timestamp": null,
      "create_timestamp": 1542524759975,
      "close_timestamp": null,
      "suppress_timestamp_utc": null,
      "ack_timestamp_utc": null,
      "create_timestamp_utc": "2018-11-18 07:05:59",
      "close_timestamp_utc": null,
      "event_identifier": null,
      "notes": null
    },
    {
      "event_summary_id": 512615,
      "issue_description": "GOLF-HD in 0441 had consecutive unbound breaks - Breaks[c27ab935-fcac-4390-9ca8-3d5cc3243f55 311a9fbb-534e-4fe3-8968-7e2ca95afb7f be0db773-09f1-44ff-8dd8-bd20d805e399 bfc014c7-fc27-4b82-9a05-2ebd4272bce4 ]",
      "jira_id": null,
      "event_category": "UNBOUND BREAKS",
      "ack_flag": false,
      "market": "Indianapolis",
      "zone_name_syscode": "Northeast INDY (0441)",
      "zone_name": "Northeast INDY",
      "syscode": "0441",
      "network": "GOLF-HD",
      "status": "HISTORICAL",
      "actual_status": "HISTORICAL",
      "suppress_timestamp": null,
      "ack_timestamp": null,
      "create_timestamp": 1542524420594,
      "close_timestamp": 1542524420594,
      "suppress_timestamp_utc": null,
      "ack_timestamp_utc": null,
      "create_timestamp_utc": "2018-11-18 07:00:20",
      "close_timestamp_utc": "2018-11-18 07:00:20",
      "event_identifier": null,
      "notes": null
    },
    {
      "event_summary_id": 512614,
      "issue_description": "GOLF-HD in 4899 had consecutive unbound breaks - Breaks[24d5a653-be58-4846-9231-c5ca4b485960 2a26d2ad-64a3-4b0f-8f70-9f4f3ff26630 0aed54f7-d73f-4f93-81bc-4c4bfa3f1288 17cbcf3d-da6d-447e-aab8-8f683e7ecc6f 2044095c-d1c7-44cc-90c9-058f0288ffc5 ]",
      "jira_id": null,
      "event_category": "UNBOUND BREAKS",
      "ack_flag": false,
      "market": "Indianapolis",
      "zone_name_syscode": "Hendricks Comcast (4899)",
      "zone_name": "Hendricks Comcast",
      "syscode": "4899",
      "network": "GOLF-HD",
      "status": "HISTORICAL",
      "actual_status": "HISTORICAL",
      "suppress_timestamp": null,
      "ack_timestamp": null,
      "create_timestamp": 1542524419439,
      "close_timestamp": 1542524419439,
      "suppress_timestamp_utc": null,
      "ack_timestamp_utc": null,
      "create_timestamp_utc": "2018-11-18 07:00:19",
      "close_timestamp_utc": "2018-11-18 07:00:19",
      "event_identifier": null,
      "notes": null
    },
    {
      "event_summary_id": 512612,
      "issue_description": "GOLF-HD in 0126 had consecutive unbound breaks - Breaks[a336630d-5b72-42b4-a2fb-881cb8d778de 68d01430-6bef-4fd4-bf4d-ef831c264a32 f4b0cf66-0b48-4857-8ab6-99c5d71b3972 ]",
      "jira_id": null,
      "event_category": "UNBOUND BREAKS",
      "ack_flag": false,
      "market": "Ft. Wayne",
      "zone_name_syscode": "Fort Wayne (0126)",
      "zone_name": "Fort Wayne",
      "syscode": "0126",
      "network": "GOLF-HD",
      "status": "ACTIVE",
      "actual_status": "ACTIVE",
      "suppress_timestamp": null,
      "ack_timestamp": null,
      "create_timestamp": 1542523494646,
      "close_timestamp": null,
      "suppress_timestamp_utc": null,
      "ack_timestamp_utc": null,
      "create_timestamp_utc": "2018-11-18 06:44:54",
      "close_timestamp_utc": null,
      "event_identifier": null,
      "notes": null
    },
    {
      "event_summary_id": 512611,
      "issue_description": "AMC-HD in 6623 had consecutive unbound breaks - Breaks[42c83eff-e14d-46a8-8b97-165d224ad8c0 ba3c90a3-c920-4a8d-a5b6-1dd4c57acbce 85d6b845-db3c-4fad-92e5-669d39cffc6f ]",
      "jira_id": null,
      "event_category": "UNBOUND BREAKS",
      "ack_flag": false,
      "market": "Louisville",
      "zone_name_syscode": "Seymour IN (6623)",
      "zone_name": "Seymour IN",
      "syscode": "6623",
      "network": "AMC-HD",
      "status": "ACTIVE",
      "actual_status": "ACTIVE",
      "suppress_timestamp": null,
      "ack_timestamp": null,
      "create_timestamp": 1542523158419,
      "close_timestamp": null,
      "suppress_timestamp_utc": null,
      "ack_timestamp_utc": null,
      "create_timestamp_utc": "2018-11-18 06:39:18",
      "close_timestamp_utc": null,
      "event_identifier": null,
      "notes": null
    },
    {
      "event_summary_id": 512610,
      "issue_description": "NICK-HD in 2313 had consecutive unbound breaks - Breaks[ec4b59d2-6a90-4992-a846-002fc17216f5 a03e83e7-d3a4-4fac-aa86-61b025a920a7 b2196011-8c2d-4efb-8024-5544612a46b4 ]",
      "jira_id": null,
      "event_category": "UNBOUND BREAKS",
      "ack_flag": false,
      "market": "South Bend",
      "zone_name_syscode": "Warsaw (2313)",
      "zone_name": "Warsaw",
      "syscode": "2313",
      "network": "NICK-HD",
      "status": "ACTIVE",
      "actual_status": "ACTIVE",
      "suppress_timestamp": null,
      "ack_timestamp": null,
      "create_timestamp": 1542523158417,
      "close_timestamp": null,
      "suppress_timestamp_utc": null,
      "ack_timestamp_utc": null,
      "create_timestamp_utc": "2018-11-18 06:39:18",
      "close_timestamp_utc": null,
      "event_identifier": null,
      "notes": null
    },
    {
      "event_summary_id": 512609,
      "issue_description": "HGTV-HD in 5047 had consecutive unbound breaks - Breaks[394a237b-b269-4e6b-9190-335573543e19 ec16f760-bbe3-4a73-bbc6-815f18a9884d 17b438ef-bc4b-4a9c-8573-cd005ad4d6b8 8056aacf-4986-4cce-91f8-404824ca3d97 ]",
      "jira_id": null,
      "event_category": "UNBOUND BREAKS",
      "ack_flag": false,
      "market": "South Bend",
      "zone_name_syscode": "Elkhart (5047)",
      "zone_name": "Elkhart",
      "syscode": "5047",
      "network": "HGTV-HD",
      "status": "ACTIVE",
      "actual_status": "ACTIVE",
      "suppress_timestamp": null,
      "ack_timestamp": null,
      "create_timestamp": 1542523158350,
      "close_timestamp": null,
      "suppress_timestamp_utc": null,
      "ack_timestamp_utc": null,
      "create_timestamp_utc": "2018-11-18 06:39:18",
      "close_timestamp_utc": null,
      "event_identifier": null,
      "notes": null
    },
    {
      "event_summary_id": 512608,
      "issue_description": "NICK-HD in 6618 had consecutive unbound breaks - Breaks[aac6d0a8-7bef-4c2a-b62a-fa94c35b4e1a 5b2a6272-e73d-4bbc-8f84-11c6974fbbf0 80e52bf3-3430-4ec8-83c6-12d49f9ce606 ]",
      "jira_id": null,
      "event_category": "UNBOUND BREAKS",
      "ack_flag": false,
      "market": "Indianapolis",
      "zone_name_syscode": "Logansport/Peru (6618)",
      "zone_name": "Logansport/Peru",
      "syscode": "6618",
      "network": "NICK-HD",
      "status": "ACTIVE",
      "actual_status": "ACTIVE",
      "suppress_timestamp": null,
      "ack_timestamp": null,
      "create_timestamp": 1542523158334,
      "close_timestamp": null,
      "suppress_timestamp_utc": null,
      "ack_timestamp_utc": null,
      "create_timestamp_utc": "2018-11-18 06:39:18",
      "close_timestamp_utc": null,
      "event_identifier": null,
      "notes": null
    },
    {
      "event_summary_id": 512607,
      "issue_description": "HLN-HD in 2313 had consecutive unbound breaks - Breaks[fc2c7d3d-3978-4135-8b6b-06827c7d1544 fd4d6f36-b2a4-47f6-971f-0a7737948cbe c2eca407-7812-4ea3-b3bc-7c6e90a2d361 ]",
      "jira_id": null,
      "event_category": "UNBOUND BREAKS",
      "ack_flag": false,
      "market": "South Bend",
      "zone_name_syscode": "Warsaw (2313)",
      "zone_name": "Warsaw",
      "syscode": "2313",
      "network": "HLN-HD",
      "status": "HISTORICAL",
      "actual_status": "HISTORICAL",
      "suppress_timestamp": null,
      "ack_timestamp": null,
      "create_timestamp": 1542523158035,
      "close_timestamp": 1542524260527,
      "suppress_timestamp_utc": null,
      "ack_timestamp_utc": null,
      "create_timestamp_utc": "2018-11-18 06:39:18",
      "close_timestamp_utc": "2018-11-18 06:57:40",
      "event_identifier": null,
      "notes": null
    }
  ]
}
